%YAML 1.1
%TAG !u! tag:unity3d.com,2011:
--- !u!114 &11400000
MonoBehaviour:
  m_ObjectHideFlags: 0
  m_PrefabParentObject: {fileID: 0}
  m_PrefabInternal: {fileID: 0}
  m_GameObject: {fileID: 0}
  m_Enabled: 1
  m_EditorHideFlags: 0
  m_Script: {fileID: 11500000, guid: edd2d49e9f57a3f46b6dd3e05583ba28, type: 3}
  m_Name: "Melod\xEDa C"
  m_EditorClassIdentifier: 
  parameters:
    samples:
    - {fileID: 11400000, guid: 1e312076533eebf4ba6f09fe9aac98cf, type: 2}
    - {fileID: 11400000, guid: ba8b7e514347ad24b9a2f869f23bb7f7, type: 2}
    - {fileID: 11400000, guid: b3067930261cf48439e873d1e207c518, type: 2}
    bmp: 140
    mode: 0
    rhythm: 0
