%YAML 1.1
%TAG !u! tag:unity3d.com,2011:
--- !u!114 &11400000
MonoBehaviour:
  m_ObjectHideFlags: 0
  m_PrefabParentObject: {fileID: 0}
  m_PrefabInternal: {fileID: 0}
  m_GameObject: {fileID: 0}
  m_Enabled: 1
  m_EditorHideFlags: 0
  m_Script: {fileID: 11500000, guid: 33e33670fff999f4cb3b47b4217a510e, type: 3}
  m_Name: Character Parameters
  m_EditorClassIdentifier: 
  maxHealth: 3
  maxEnergy: 3
  invulnerabilityTime: 1
  baseEnergyRegenPerSecond: 0.1
  energyRegenCurve:
    serializedVersion: 2
    m_Curve:
    - serializedVersion: 2
      time: -1
      value: 5
      inSlope: 0.0000069071266
      outSlope: 0.0000069071266
      tangentMode: 0
    - serializedVersion: 2
      time: 1
      value: 1
      inSlope: -2.8692238
      outSlope: -2.8692238
      tangentMode: 0
    m_PreInfinity: 2
    m_PostInfinity: 2
    m_RotationOrder: 0
  jumpCost: 0
  dashCost: 1
  crouchCostPerSecond: 1
  jumpStrength: 5
  rayRadius: 0.5
  groundedRaycastStart: 0
  groundedRaycastEnd: 0.5
  groundedDistanceBufferPercentage: 0
  minRaycastAdvance: 0.1
  collidableLayers:
    serializedVersion: 2
    m_Bits: 256
  forwardAccelerationTime: 1
  stepsPerBeat: 2
  relativeSpeedToMaxSpeedStepAmount:
    serializedVersion: 2
    m_Curve:
    - serializedVersion: 2
      time: 0
      value: 2
      inSlope: 0
      outSlope: -1
      tangentMode: 69
    - serializedVersion: 2
      time: 1
      value: 1
      inSlope: -1
      outSlope: 0
      tangentMode: 69
    m_PreInfinity: 2
    m_PostInfinity: 2
    m_RotationOrder: 0
  stepsSound: []
