%YAML 1.1
%TAG !u! tag:unity3d.com,2011:
--- !u!114 &11400000
MonoBehaviour:
  m_ObjectHideFlags: 0
  m_PrefabParentObject: {fileID: 0}
  m_PrefabInternal: {fileID: 0}
  m_GameObject: {fileID: 0}
  m_Enabled: 1
  m_EditorHideFlags: 0
  m_Script: {fileID: 11500000, guid: eb7c85784bf2eca4fb06ed144ae9bbaa, type: 3}
  m_Name: GameManagerParameters
  m_EditorClassIdentifier: 
  properties:
    secondsBeforeSongStart: 5
    characterMovementPrefab: {fileID: 114712974321710476, guid: 02c5aee56e67891418be8d2b65fd7810,
      type: 2}
