%YAML 1.1
%TAG !u! tag:unity3d.com,2011:
--- !u!114 &11400000
MonoBehaviour:
  m_ObjectHideFlags: 0
  m_PrefabParentObject: {fileID: 0}
  m_PrefabInternal: {fileID: 0}
  m_GameObject: {fileID: 0}
  m_Enabled: 1
  m_EditorHideFlags: 0
  m_Script: {fileID: 11500000, guid: ad44b3465f536024ca4327e71f66abcc, type: 3}
  m_Name: Sound Effects Parameters
  m_EditorClassIdentifier: 
  maxElementsPerPool: 3
  dangerClips:
  - dangerType: 6
    clips:
    - {fileID: 8300000, guid: 99113e21bc65f544990f525b062835ce, type: 3}
  - dangerType: 7
    clips:
    - {fileID: 8300000, guid: 99113e21bc65f544990f525b062835ce, type: 3}
  - dangerType: 2
    clips:
    - {fileID: 8300000, guid: 99113e21bc65f544990f525b062835ce, type: 3}
  - dangerType: 5
    clips:
    - {fileID: 8300000, guid: 99113e21bc65f544990f525b062835ce, type: 3}
