%YAML 1.1
%TAG !u! tag:unity3d.com,2011:
--- !u!114 &11400000
MonoBehaviour:
  m_ObjectHideFlags: 0
  m_PrefabParentObject: {fileID: 0}
  m_PrefabInternal: {fileID: 0}
  m_GameObject: {fileID: 0}
  m_Enabled: 1
  m_EditorHideFlags: 0
  m_Script: {fileID: 11500000, guid: 0edb4faa8b100564a85764694b1d1b35, type: 3}
  m_Name: PHONE CALL (CON COLA)
  m_EditorClassIdentifier: 
  parameters:
    bmp: 140
    clip: {fileID: 8300000, guid: 5c1c770deffbf4246b3f55693428250d, type: 3}
    layer: 1
    mode: 0
    rhythm: 0
    duration: 17.14288
