%YAML 1.1
%TAG !u! tag:unity3d.com,2011:
--- !u!114 &11400000
MonoBehaviour:
  m_ObjectHideFlags: 0
  m_PrefabParentObject: {fileID: 0}
  m_PrefabInternal: {fileID: 0}
  m_GameObject: {fileID: 0}
  m_Enabled: 1
  m_EditorHideFlags: 0
  m_Script: {fileID: 11500000, guid: edd2d49e9f57a3f46b6dd3e05583ba28, type: 3}
  m_Name: Phone Call
  m_EditorClassIdentifier: 
  parameters:
    samples:
    - {fileID: 11400000, guid: 34e8b8a4189e7f74dabfb42a11003782, type: 2}
    - {fileID: 11400000, guid: 199e06dee682ee14fbdf646edf24ad91, type: 2}
    bmp: 140
    mode: 0
    rhythm: 0
