%YAML 1.1
%TAG !u! tag:unity3d.com,2011:
--- !u!114 &11400000
MonoBehaviour:
  m_ObjectHideFlags: 0
  m_PrefabParentObject: {fileID: 0}
  m_PrefabInternal: {fileID: 0}
  m_GameObject: {fileID: 0}
  m_Enabled: 1
  m_EditorHideFlags: 0
  m_Script: {fileID: 11500000, guid: 3074b95e8c0acda449c8d133a9181b72, type: 3}
  m_Name: Character Strafe Sprinting Action
  m_EditorClassIdentifier: 
  maxStrafeSpeed: 3
  strafeAccelerationMultiplier: 3
  accelerationCurve:
    serializedVersion: 2
    m_Curve:
    - serializedVersion: 2
      time: -1
      value: 10
      inSlope: 0.0000069071266
      outSlope: 0.0000069071266
      tangentMode: 0
    - serializedVersion: 2
      time: 1
      value: 1
      inSlope: 0
      outSlope: 0
      tangentMode: 0
    m_PreInfinity: 2
    m_PostInfinity: 2
    m_RotationOrder: 0
  unpressedDrag: 5
  pressedDrag: 5
  strafeMass: 1
