%YAML 1.1
%TAG !u! tag:unity3d.com,2011:
--- !u!114 &11400000
MonoBehaviour:
  m_ObjectHideFlags: 0
  m_PrefabParentObject: {fileID: 0}
  m_PrefabInternal: {fileID: 0}
  m_GameObject: {fileID: 0}
  m_Enabled: 1
  m_EditorHideFlags: 0
  m_Script: {fileID: 11500000, guid: edd2d49e9f57a3f46b6dd3e05583ba28, type: 3}
  m_Name: Hi Hats
  m_EditorClassIdentifier: 
  parameters:
    samples:
    - {fileID: 11400000, guid: 03ede7d0f7dcc68438883b8b55d46753, type: 2}
    - {fileID: 11400000, guid: 19c996850238de04282233505589bb37, type: 2}
    - {fileID: 11400000, guid: 3067bf7877eb76045b378f5cd2de94b9, type: 2}
    - {fileID: 11400000, guid: 1f6114d1af3e8db44927100450b715d3, type: 2}
    - {fileID: 11400000, guid: 0c8d61ed540e33c42afe2adfe28314c8, type: 2}
    - {fileID: 11400000, guid: 23163185961595846b89df80aac58d87, type: 2}
    - {fileID: 11400000, guid: 1aa3bc71511b63b4fa334e0367ca7397, type: 2}
    - {fileID: 11400000, guid: 16e590088c1ec40469fa83fc61c33a3e, type: 2}
    - {fileID: 11400000, guid: 3f3f46d2f222aff43af620ca7801d3ff, type: 2}
    - {fileID: 11400000, guid: 036cd527f66fc9445add8a5cd3d4d9bb, type: 2}
    - {fileID: 11400000, guid: 7b768a6d8e14bd34ea9ddc96280dbce2, type: 2}
    - {fileID: 11400000, guid: 41908b38c7ce9c14d90e5ea69655afb1, type: 2}
    - {fileID: 11400000, guid: 128a5b6a840185345be3a9c96fab8956, type: 2}
    - {fileID: 11400000, guid: 577b891fb3e9e784e99d478f8b2ddd31, type: 2}
    - {fileID: 11400000, guid: 1fb2288adbff9d849864cf7b3f473a9d, type: 2}
    - {fileID: 11400000, guid: ae32e2be2f06eea46b3ff875e6ddea5a, type: 2}
    - {fileID: 11400000, guid: 17d3a82314519604a969796869eee2d0, type: 2}
    - {fileID: 11400000, guid: eba2ceee0b589ce4989cc58706cd7434, type: 2}
    - {fileID: 11400000, guid: fc04f752d6d04bc449c931b56f4a01ea, type: 2}
    - {fileID: 11400000, guid: 12be20c6402b2e749903a6854b7aa4cc, type: 2}
    - {fileID: 11400000, guid: 26565544609f45e4ab9cfc83725a7596, type: 2}
    - {fileID: 11400000, guid: d24c52d733a85644b924cfdf9a654073, type: 2}
    - {fileID: 11400000, guid: cb0850c88ab566d47bc546353b6d6d5c, type: 2}
    - {fileID: 11400000, guid: b7d3fc0977a652e48b942153e50adebe, type: 2}
    - {fileID: 11400000, guid: 0df1ee592f850eb4a85abb3ff3c8af5c, type: 2}
    - {fileID: 11400000, guid: 5659d8e3c04f2a244abb5ba9d9449ee3, type: 2}
    - {fileID: 11400000, guid: 6643298ad27293d478b89a5142393a26, type: 2}
    - {fileID: 11400000, guid: 20a2c14bc16b7a148867d81a26563f5c, type: 2}
    - {fileID: 11400000, guid: cd0437b22cece154bbd78ac179c10fc2, type: 2}
    - {fileID: 11400000, guid: 88907de6c5c34704384d018d1dd4faea, type: 2}
    - {fileID: 11400000, guid: e4458fd724dd6ca4fbfcd6281a306230, type: 2}
    - {fileID: 11400000, guid: e08e761d7ed6be4429d8b45601d0b8d1, type: 2}
    - {fileID: 11400000, guid: 6d9399c8f8043214cab356a9bca81da2, type: 2}
    - {fileID: 11400000, guid: 1209e228b73a99e4698fa7d013068590, type: 2}
    - {fileID: 11400000, guid: 4f7a0c535b85b6d44ab99ab03d4ae154, type: 2}
    - {fileID: 11400000, guid: ca7508458fff0d64da2837918c8d0aa1, type: 2}
    - {fileID: 11400000, guid: f6d6dee3b97b5ad4d9597ebc8929313a, type: 2}
    - {fileID: 11400000, guid: 26b267f44bff40343972d9599f80b19a, type: 2}
    - {fileID: 11400000, guid: 06674b96f4c810741a3ddf2fddf756cc, type: 2}
    - {fileID: 11400000, guid: 990855186c6edee46a222b4f261b1111, type: 2}
    - {fileID: 11400000, guid: 701baa9aa5f82124c9803f2ab08ae770, type: 2}
    - {fileID: 11400000, guid: 9e5e750242600d64d97dc56a3c589f78, type: 2}
    - {fileID: 11400000, guid: da27759f89dbd35409b65155dc166e05, type: 2}
    - {fileID: 11400000, guid: 01d8bfa2562e090459cba27ea3ba1ff8, type: 2}
    - {fileID: 11400000, guid: e1f2951857cfce549b919522abddca8a, type: 2}
    bmp: 140
    mode: 0
    rhythm: 0
