%YAML 1.1
%TAG !u! tag:unity3d.com,2011:
--- !u!114 &11400000
MonoBehaviour:
  m_ObjectHideFlags: 0
  m_PrefabParentObject: {fileID: 0}
  m_PrefabInternal: {fileID: 0}
  m_GameObject: {fileID: 0}
  m_Enabled: 1
  m_EditorHideFlags: 0
  m_Script: {fileID: 11500000, guid: 0ef38553a648d4847ba1cf3277b880b4, type: 3}
  m_Name: CharacterDashState
  m_EditorClassIdentifier: 
  ongoingActions:
  - {fileID: 11400000, guid: 8fcf0dfccc9a1ee46a5352d05c779a1f, type: 2}
  - {fileID: 11400000, guid: f45bf39903c226b42b423debfb3661cf, type: 2}
  startStateActions: []
  endStateActions:
  - {fileID: 11400000, guid: 6d4deb90e83578e42b0fc1cdca44d0ad, type: 2}
  transitions:
  - name: Dash -> Run
    nextstate: {fileID: 11400000, guid: 6c82e25d0ce4a5a42874ebb3e550ad2e, type: 2}
    decisions:
    - {fileID: 11400000, guid: 082cb0ee6ef24c146a6d690d5d84dd50, type: 2}
    - {fileID: 11400000, guid: b1bf803b850b9534fbf629e62eb38cc3, type: 2}
    actions:
    - {fileID: 11400000, guid: 24ba0cb27e8cc3b41b889a32bc055ab4, type: 2}
  - name: Dash -> Airborne
    nextstate: {fileID: 11400000, guid: 4fe909d7516b15e42b369cabfa03db6c, type: 2}
    decisions:
    - {fileID: 11400000, guid: 082cb0ee6ef24c146a6d690d5d84dd50, type: 2}
    - {fileID: 11400000, guid: e7f68f56772606348ad6e1043f8cf375, type: 2}
    actions: []
