%YAML 1.1
%TAG !u! tag:unity3d.com,2011:
--- !u!114 &11400000
MonoBehaviour:
  m_ObjectHideFlags: 0
  m_PrefabParentObject: {fileID: 0}
  m_PrefabInternal: {fileID: 0}
  m_GameObject: {fileID: 0}
  m_Enabled: 1
  m_EditorHideFlags: 0
  m_Script: {fileID: 11500000, guid: 0ef38553a648d4847ba1cf3277b880b4, type: 3}
  m_Name: CharacterCrouchOutState
  m_EditorClassIdentifier: 
  ongoingActions:
  - {fileID: 11400000, guid: 9c227a7c3529a8d408407a7e5f7f3556, type: 2}
  - {fileID: 11400000, guid: f45bf39903c226b42b423debfb3661cf, type: 2}
  - {fileID: 11400000, guid: 83b3c3babd7e9194e8c0ea5aa6484719, type: 2}
  startStateActions: []
  endStateActions: []
  transitions:
  - name: Crouching Off --> Running
    nextstate: {fileID: 11400000, guid: 6c82e25d0ce4a5a42874ebb3e550ad2e, type: 2}
    decisions:
    - {fileID: 11400000, guid: 51d88f3354c47e44397d748b5eeb2ed7, type: 2}
    actions:
    - {fileID: 11400000, guid: 0b899f04c460f2d44bd5f4aa6a44ff16, type: 2}
  - name: Crouching Off --> Jumping
    nextstate: {fileID: 11400000, guid: 4fe909d7516b15e42b369cabfa03db6c, type: 2}
    decisions:
    - {fileID: 11400000, guid: 53fc771af1fda9a49939a0fa5b88973c, type: 2}
    actions:
    - {fileID: 11400000, guid: 0b899f04c460f2d44bd5f4aa6a44ff16, type: 2}
    - {fileID: 11400000, guid: 55a21f9043655a34fb4936230f2e1abf, type: 2}
    - {fileID: 11400000, guid: 335435eb10f60e049861f1eb3494ac8e, type: 2}
