%YAML 1.1
%TAG !u! tag:unity3d.com,2011:
--- !u!114 &11400000
MonoBehaviour:
  m_ObjectHideFlags: 0
  m_PrefabParentObject: {fileID: 0}
  m_PrefabInternal: {fileID: 0}
  m_GameObject: {fileID: 0}
  m_Enabled: 1
  m_EditorHideFlags: 0
  m_Script: {fileID: 11500000, guid: 0ef38553a648d4847ba1cf3277b880b4, type: 3}
  m_Name: CharacterCrouchState
  m_EditorClassIdentifier: 
  ongoingActions:
  - {fileID: 11400000, guid: 83b3c3babd7e9194e8c0ea5aa6484719, type: 2}
  - {fileID: 11400000, guid: f45bf39903c226b42b423debfb3661cf, type: 2}
  - {fileID: 11400000, guid: cf2bffa9703152f4a9ca65e8f851bc59, type: 2}
  startStateActions: []
  endStateActions: []
  transitions:
  - name: Crouched --> Crouch Off Voluntary
    nextstate: {fileID: 11400000, guid: ebea24462d5e72e4f81e1b9a55a162da, type: 2}
    decisions:
    - {fileID: 11400000, guid: 228621fa9c0258f44a7ed811930d2895, type: 2}
    actions: []
  - name: Crouched --> Jump
    nextstate: {fileID: 11400000, guid: 4fe909d7516b15e42b369cabfa03db6c, type: 2}
    decisions:
    - {fileID: 11400000, guid: 53fc771af1fda9a49939a0fa5b88973c, type: 2}
    actions:
    - {fileID: 11400000, guid: 55a21f9043655a34fb4936230f2e1abf, type: 2}
    - {fileID: 11400000, guid: 0b899f04c460f2d44bd5f4aa6a44ff16, type: 2}
    - {fileID: 11400000, guid: 335435eb10f60e049861f1eb3494ac8e, type: 2}
  - name: Crouched --> Airborne
    nextstate: {fileID: 11400000, guid: 4fe909d7516b15e42b369cabfa03db6c, type: 2}
    decisions:
    - {fileID: 11400000, guid: e7f68f56772606348ad6e1043f8cf375, type: 2}
    actions:
    - {fileID: 11400000, guid: 3204bd52497a64c4884a8500fe2a8439, type: 2}
  - name: Crouched --> Crouch Off Involuntary
    nextstate: {fileID: 11400000, guid: ebea24462d5e72e4f81e1b9a55a162da, type: 2}
    decisions:
    - {fileID: 11400000, guid: ba5489c871603444895398afed71c40b, type: 2}
    actions: []
