%YAML 1.1
%TAG !u! tag:unity3d.com,2011:
--- !u!1045 &1
EditorBuildSettings:
  m_ObjectHideFlags: 0
  serializedVersion: 2
  m_Scenes:
  - enabled: 1
    path: Assets/Scenes/Main Menu.unity
    guid: b2346b973e1c5b746acfb5b39d053842
  - enabled: 1
    path: Assets/Scenes/Game.unity
    guid: e2bdc9975bd501b438872158deb3bad5
