%YAML 1.1
%TAG !u! tag:unity3d.com,2011:
--- !u!114 &11400000
MonoBehaviour:
  m_ObjectHideFlags: 0
  m_PrefabParentObject: {fileID: 0}
  m_PrefabInternal: {fileID: 0}
  m_GameObject: {fileID: 0}
  m_Enabled: 1
  m_EditorHideFlags: 0
  m_Script: {fileID: 11500000, guid: edd2d49e9f57a3f46b6dd3e05583ba28, type: 3}
  m_Name: "Melod\xEDa 5"
  m_EditorClassIdentifier: 
  parameters:
    samples:
    - {fileID: 11400000, guid: 7304a64dfb72ac148a4265d8e21275cc, type: 2}
    bmp: 140
    mode: 0
    rhythm: 0
