%YAML 1.1
%TAG !u! tag:unity3d.com,2011:
--- !u!1001 &100100000
Prefab:
  m_ObjectHideFlags: 1
  serializedVersion: 2
  m_Modification:
    m_TransformParent: {fileID: 0}
    m_Modifications: []
    m_RemovedComponents: []
  m_ParentPrefab: {fileID: 0}
  m_RootGameObject: {fileID: 1976310770680166}
  m_IsPrefabParent: 1
--- !u!1 &1976310770680166
GameObject:
  m_ObjectHideFlags: 0
  m_PrefabParentObject: {fileID: 0}
  m_PrefabInternal: {fileID: 100100000}
  serializedVersion: 5
  m_Component:
  - component: {fileID: 4760286120119598}
  - component: {fileID: 114843112318503208}
  m_Layer: 0
  m_Name: '@TrackManager'
  m_TagString: Untagged
  m_Icon: {fileID: 0}
  m_NavMeshLayer: 0
  m_StaticEditorFlags: 0
  m_IsActive: 1
--- !u!4 &4760286120119598
Transform:
  m_ObjectHideFlags: 1
  m_PrefabParentObject: {fileID: 0}
  m_PrefabInternal: {fileID: 100100000}
  m_GameObject: {fileID: 1976310770680166}
  m_LocalRotation: {x: 0, y: 0, z: 0, w: 1}
  m_LocalPosition: {x: 0, y: 0, z: 0}
  m_LocalScale: {x: 1, y: 1, z: 1}
  m_Children: []
  m_Father: {fileID: 0}
  m_RootOrder: 0
  m_LocalEulerAnglesHint: {x: 0, y: 0, z: 0}
--- !u!114 &114843112318503208
MonoBehaviour:
  m_ObjectHideFlags: 1
  m_PrefabParentObject: {fileID: 0}
  m_PrefabInternal: {fileID: 100100000}
  m_GameObject: {fileID: 1976310770680166}
  m_Enabled: 1
  m_EditorHideFlags: 0
  m_Script: {fileID: 11500000, guid: 5d992e1ef73218d49b296ee90efd9fd8, type: 3}
  m_Name: 
  m_EditorClassIdentifier: 
  parameters:
    avgDangersPerSecond: 2
    maxDangersMultiple: 2
    maxDangersPerTile: 1
    duration: 0
    intervalTileLength: 2
    tileSectionDimensions: {x: 6, y: 2}
    generableDangers:
      m_keys: 010000000200000007000000
      m_values:
      - {fileID: 114642540684891304, guid: 7eb52f1829f40164c9c247b8f4864f9b, type: 2}
      - {fileID: 114127162949632620, guid: b95e53a218e2e574eaed19f419391d23, type: 2}
      - {fileID: 114564566305709484, guid: 411e763c2bb13354391cd06c284cbcf6, type: 2}
    rootTile: {fileID: 114302847407436274, guid: 6839574e56a19904897283bf66f7edd9,
      type: 2}
    intervalsPerBeat: 4
    barInitPush: 0.5
    sharpenPush: 0.5
    dangersAmountGenerationCurve:
      serializedVersion: 2
      m_Curve:
      - serializedVersion: 2
        time: 0
        value: 1
        inSlope: 0
        outSlope: 0
        tangentMode: 0
      - serializedVersion: 2
        time: 0.25
        value: 1
        inSlope: 0
        outSlope: -4.141548
        tangentMode: 1
      - serializedVersion: 2
        time: 1
        value: 0
        inSlope: 0
        outSlope: 0
        tangentMode: 0
      m_PreInfinity: 2
      m_PostInfinity: 2
      m_RotationOrder: 0
    intensityGenerationCurve:
      serializedVersion: 2
      m_Curve:
      - serializedVersion: 2
        time: 0
        value: 0
        inSlope: 1.4412876
        outSlope: 1.4412876
        tangentMode: 0
      - serializedVersion: 2
        time: 0.75
        value: 1
        inSlope: 1.3307174
        outSlope: 0
        tangentMode: 1
      - serializedVersion: 2
        time: 1
        value: 1
        inSlope: 0
        outSlope: 0
        tangentMode: 0
      m_PreInfinity: 2
      m_PostInfinity: 2
      m_RotationOrder: 0
    dangersAmountToIntensityRatio: 0.5
    seedSong:
      songParameters:
        bmp: 0
        duration: 0
        maxSampleDuration: 0
        nextSegmentTimeBuffer: 0
        mode: 0
        rhythm: 0
        looping: 0
        segmentAmount: 0
        segmentSwitchCurve:
          serializedVersion: 2
          m_Curve: []
          m_PreInfinity: 2
          m_PostInfinity: 2
          m_RotationOrder: 4
        previousSegmentSourcesStored: 0
      composedSegments: []
      currentSegmentIndex: 0
      introSegment:
        melodySamples: []
        harmonySamples: []
        beatSamples: []
        type: 0
      verseSegment:
        melodySamples: []
        harmonySamples: []
        beatSamples: []
        type: 0
      bridgeSegment:
        melodySamples: []
        harmonySamples: []
        beatSamples: []
        type: 0
      outroSegment:
        melodySamples: []
        harmonySamples: []
        beatSamples: []
        type: 0
      melodySamples: []
      harmonySamples: []
      baseSamples: []
      melodyMixerGroup: {fileID: 0}
      harmonyMixerGroup: {fileID: 0}
      beatMixerGroup: {fileID: 0}
    noDanger: {fileID: 0}
  track:
    parameters:
      intensities: []
      averageIntensity: 0
      intervalTileLength: 0
      trackTilesData: []
      parentSong:
        songParameters:
          bmp: 0
          duration: 0
          maxSampleDuration: 0
          nextSegmentTimeBuffer: 0
          mode: 0
          rhythm: 0
          looping: 0
          segmentAmount: 0
          segmentSwitchCurve:
            serializedVersion: 2
            m_Curve: []
            m_PreInfinity: 2
            m_PostInfinity: 2
            m_RotationOrder: 4
          previousSegmentSourcesStored: 0
        composedSegments: []
        currentSegmentIndex: 0
        introSegment:
          melodySamples: []
          harmonySamples: []
          beatSamples: []
          type: 0
        verseSegment:
          melodySamples: []
          harmonySamples: []
          beatSamples: []
          type: 0
        bridgeSegment:
          melodySamples: []
          harmonySamples: []
          beatSamples: []
          type: 0
        outroSegment:
          melodySamples: []
          harmonySamples: []
          beatSamples: []
          type: 0
        melodySamples: []
        harmonySamples: []
        baseSamples: []
        melodyMixerGroup: {fileID: 0}
        harmonyMixerGroup: {fileID: 0}
        beatMixerGroup: {fileID: 0}
    parent: {fileID: 0}
